// Jest Snapshot v1, https://goo.gl/fbAQLP

exports[`snapshot 1`] = `
<div
  className="table-component"
>
  <h1
    className="float-left"
  >
    Organisationen:
  </h1>
  <button
    className="btn btn-quernetzer float-right"
    data-target="#OrganisationModal"
    data-toggle="modal"
    onClick={[Function]}
    type="button"
  >
    Organisation erstellen
  </button>
  <div
    className="table-responsive"
  >
    <table
      className="table table-hover"
    >
      <thead>
        <tr>
          <th>
            Name
          </th>
          <th>
            Logo
          </th>
          <th>
            Link
          </th>
          <th>
            Beschreibung
          </th>
          <th>
            Kategorien
          </th>
          <th>
            Tags
          </th>
          <th>
            Verknüpfte Projekte
          </th>
          <th>
            Verknüpfte Interviews
          </th>
          <th />
          <th />
        </tr>
      </thead>
      <tbody>
        <tr
          key="0"
        >
          <td>
            Stadtreinigung
          </td>
          <td>
            <OrganisationLogo
              logo="Logo Stadtreinigung"
            />
          </td>
          <td>
            <a
              href="https://www.stadtreinigung-leipzig.de"
              style={
                Object {
                  "color": "#00987a",
                }
              }
            >
              Webpage 
              Stadtreinigung
            </a>
          </td>
          <td>
            Die Stadtreinigung der Stadt Leipzig
          </td>
          <td>
            <ul />
          </td>
          <td>
            <ul />
          </td>
          <td>
            <ul />
          </td>
          <td>
            <ul />
          </td>
          <td>
            <div
              data-target="#OrganisationModal"
              data-toggle="modal"
              onClick={[Function]}
            >
              <ModifyButton />
            </div>
          </td>
          <td>
            <div
              onClick={[Function]}
            >
              <DeleteButton />
            </div>
          </td>
        </tr>
        <tr
          key="1"
        >
          <td>
            Druckerei Monochrome
          </td>
          <td>
            <OrganisationLogo
              logo="Logo Druckerei"
            />
          </td>
          <td>
            <a
              href="https://www.monochrome.de"
              style={
                Object {
                  "color": "#00987a",
                }
              }
            >
              Webpage 
              Druckerei Monochrome
            </a>
          </td>
          <td>
            Die Leipziger Druckerei Monochrome
          </td>
          <td>
            <ul />
          </td>
          <td>
            <ul />
          </td>
          <td>
            <ul />
          </td>
          <td>
            <ul />
          </td>
          <td>
            <div
              data-target="#OrganisationModal"
              data-toggle="modal"
              onClick={[Function]}
            >
              <ModifyButton />
            </div>
          </td>
          <td>
            <div
              onClick={[Function]}
            >
              <DeleteButton />
            </div>
          </td>
        </tr>
      </tbody>
    </table>
  </div>
  <OrganisationForm
    connectedCategories={Array []}
    connectedInterviews={Array []}
    connectedProjects={Array []}
    connectedTags={Array []}
    create={true}
    createCallback={[Function]}
    createFalseCallbackMain={[Function]}
    deleteLogo={true}
    deleteLogoCallbackMain={[Function]}
    inEdit={false}
    onSave={[Function]}
    organisationLogo={null}
    serverConnectionError={false}
  />
  <ModalError
    errorMessage=""
    errorTitle="Fehler beim Löschen der Organisation!"
    modalId="OrganisationBackendErrorModal"
    onClosing={[Function]}
  />
</div>
`;
