// Jest Snapshot v1, https://goo.gl/fbAQLP

exports[`<Graph /> snapshot 1`] = `
<svg
  height={1000}
  width={2000}
>
  <line
    key="line-0"
    opacity={1}
    stroke="black"
  />
  <line
    key="line-1"
    opacity={1}
    stroke="black"
  />
  <line
    key="line-2"
    opacity={1}
    stroke="black"
  />
  <line
    key="line-3"
    opacity={1}
    stroke="black"
  />
  <line
    key="line-4"
    opacity={1}
    stroke="black"
  />
  <line
    key="line-5"
    opacity={1}
    stroke="black"
  />
  <line
    key="line-6"
    opacity={1}
    stroke="black"
  />
  <ProjectNode
    key="0"
    project={
      Object {
        "_links": Object {
          "self": Object {
            "href": "http://localhost:8080/api/projects/0",
          },
        },
        "description": "Das war unser erstes Projekt",
        "from": "2019, 01, 01",
        "id": 0,
        "index": 0,
        "name": "Erstes Projekt",
        "sectors": Array [
          "Umwelt",
          "Naturschutz",
        ],
        "to": "2019, 01, 02",
        "vx": 0,
        "vy": 0,
        "x": 0,
        "y": 0,
        "year": "2019",
      }
    }
    visibleNodesOnHover={[Function]}
  />
  <ProjectNode
    key="1"
    project={
      Object {
        "_links": Object {
          "self": Object {
            "href": "http://localhost:8080/api/projects/1",
          },
        },
        "description": "Das ist unser neues Projekt",
        "from": "2018, 03, 14",
        "id": 1,
        "index": 1,
        "name": "Neues Projekt",
        "sectors": Array [
          "Soziales",
          "Umwelt",
        ],
        "to": "2020, 01, 02",
        "vx": 0,
        "vy": 0,
        "x": -7.373688780783198,
        "y": 6.754902942615239,
        "year": "2019",
      }
    }
    visibleNodesOnHover={[Function]}
  />
  <ProjectNode
    key="2"
    project={
      Object {
        "_links": Object {
          "self": Object {
            "href": "http://localhost:8080/api/projects/2",
          },
        },
        "description": "Das war unser drittes Projekt",
        "from": "2010, 02, 10",
        "id": 2,
        "index": 2,
        "name": "Drittes Projekt",
        "sectors": Array [
          "Umwelt",
        ],
        "to": "2012, 02, 01",
        "vx": 0,
        "vy": 0,
        "x": 1.2363864559502138,
        "y": -14.087985964343622,
        "year": "2018",
      }
    }
    visibleNodesOnHover={[Function]}
  />
  <ProjectNode
    key="3"
    project={
      Object {
        "_links": Object {
          "self": Object {
            "href": "http://localhost:8080/api/projects/3",
          },
        },
        "description": "Das war unser coolstes Projekt",
        "from": "2010, 02, 10",
        "id": 3,
        "index": 3,
        "name": "Viertes Projekt",
        "sectors": Array [
          "Umwelt",
        ],
        "to": "2012, 02, 01",
        "vx": 0,
        "vy": 0,
        "x": 10.538470205147267,
        "y": 13.745568221620495,
        "year": "2018",
      }
    }
    visibleNodesOnHover={[Function]}
  />
  <ProjectNode
    key="4"
    project={
      Object {
        "_links": Object {
          "self": Object {
            "href": "http://localhost:8080/api/projects/4",
          },
        },
        "description": "Projekt im Mai",
        "from": "2020, 12, 10",
        "id": 4,
        "index": 4,
        "name": "Nächstes Projekt",
        "sectors": Array [
          "Umwelt",
          "Soziales",
        ],
        "to": "2021, 10, 02",
        "vx": 0,
        "vy": 0,
        "x": -19.694269706308575,
        "y": -3.4836390075862327,
        "year": "2019",
      }
    }
    visibleNodesOnHover={[Function]}
  />
  <OrganisationNode
    key="0"
    organisation={
      Object {
        "_links": Object {
          "self": Object {
            "href": "http://localhost:8080/api/organisations/5",
          },
        },
        "description": "Das ist eine Organisation",
        "id": 5,
        "index": 5,
        "name": "Erste Organisation",
        "vx": 0,
        "vy": 0,
        "x": 18.866941955758957,
        "y": -12.001604111035421,
      }
    }
    visibleNodesOnHover={[Function]}
  />
  <OrganisationNode
    key="1"
    organisation={
      Object {
        "_links": Object {
          "self": Object {
            "href": "http://localhost:8080/api/organisations/6",
          },
        },
        "description": "Das ist eine Organisation",
        "id": 6,
        "index": 6,
        "name": "Erste Organisation",
        "vx": 0,
        "vy": 0,
        "x": -6.358980820385529,
        "y": 23.65509169134563,
      }
    }
    visibleNodesOnHover={[Function]}
  />
  <InterviewNode
    interview={
      Object {
        "_links": Object {
          "self": Object {
            "href": "http://localhost:8080/api/interviews/7",
          },
        },
        "description": "Das ist eine Organisation",
        "id": 7,
        "index": 7,
        "name": "Erste Organisation",
        "vx": 0,
        "vy": 0,
        "x": -12.194453649142762,
        "y": -23.479678451778437,
      }
    }
    key="0"
    visibleNodesOnHover={[Function]}
  />
  <InterviewNode
    interview={
      Object {
        "_links": Object {
          "self": Object {
            "href": "http://localhost:8080/api/interviews/8",
          },
        },
        "description": "Das ist eine Organisation",
        "id": 8,
        "index": 8,
        "name": "Erste Organisation",
        "vx": 0,
        "vy": 0,
        "x": 26.568018333748896,
        "y": 9.702597684001061,
      }
    }
    key="1"
    visibleNodesOnHover={[Function]}
  />
  <InterviewNode
    interview={
      Object {
        "_links": Object {
          "self": Object {
            "href": "http://localhost:8080/api/interviews/9",
          },
        },
        "description": "Das ist eine Organisation",
        "id": 9,
        "index": 9,
        "name": "Erste Organisation",
        "vx": 0,
        "vy": 0,
        "x": -27.730366684134143,
        "y": 11.446692254248088,
      }
    }
    key="2"
    visibleNodesOnHover={[Function]}
  />
  <Legend />
</svg>
`;
